waveform2.vcd
$version Generated by VerilatedVcd $end
$date Mon May  4 01:08:07 2026
 $end
$timescale   1ps $end

 $scope module TOP $end
  $var wire  9 n BRAM10_addr_a [8:0] $end
  $var wire  9 r BRAM10_addr_b [8:0] $end
  $var wire 64 o BRAM10_din_a [63:0] $end
  $var wire 64 s BRAM10_dout_b [63:0] $end
  $var wire  1 l BRAM10_en_a $end
  $var wire  1 q BRAM10_en_b $end
  $var wire  1 m BRAM10_we_a [0:0] $end
  $var wire  9 w BRAM11_addr_a [8:0] $end
  $var wire  9 { BRAM11_addr_b [8:0] $end
  $var wire 64 x BRAM11_din_a [63:0] $end
  $var wire 64 | BRAM11_dout_b [63:0] $end
  $var wire  1 u BRAM11_en_a $end
  $var wire  1 z BRAM11_en_b $end
  $var wire  1 v BRAM11_we_a [0:0] $end
  $var wire  9 "! BRAM12_addr_a [8:0] $end
  $var wire  9 &! BRAM12_addr_b [8:0] $end
  $var wire 64 #! BRAM12_din_a [63:0] $end
  $var wire 64 '! BRAM12_dout_b [63:0] $end
  $var wire  1 ~ BRAM12_en_a $end
  $var wire  1 %! BRAM12_en_b $end
  $var wire  1 !! BRAM12_we_a [0:0] $end
  $var wire  9 b BRAM_base [8:0] $end
  $var wire  4 a BRAM_number [3:0] $end
  $var wire  4 d BRAM_rw_counter_bits [3:0] $end
  $var wire  1 c BRAM_size $end
  $var wire  2 ` Clk_Counter [1:0] $end
  $var wire  9 i Compressed_FIFO_count [8:0] $end
  $var wire 64 g Compressed_FIFO_data [63:0] $end
  $var wire  1 k Compressed_FIFO_dequeue $end
  $var wire  1 j Compressed_FIFO_ena $end
  $var wire  1 f Compressed_FIFO_r_master $end
  $var wire 64 ,! Decompressed_FIFO_data [63:0] $end
  $var wire  1 *! Decompressed_FIFO_dequeue $end
  $var wire  1 .! Decompressed_FIFO_empty $end
  $var wire  1 )! Decompressed_FIFO_ena $end
  $var wire  1 +! Decompressed_FIFO_r_master $end
  $var wire  1 e PPU_start $end
  $var wire  1 ^ clk $end
  $var wire  1 _ resetn $end
  $scope module Decompresser $end
   $var wire  9 n BRAM10_addr_a [8:0] $end
   $var wire  9 r BRAM10_addr_b [8:0] $end
   $var wire 64 o BRAM10_din_a [63:0] $end
   $var wire 64 s BRAM10_dout_b [63:0] $end
   $var wire  1 l BRAM10_en_a $end
   $var wire  1 q BRAM10_en_b $end
   $var wire  1 m BRAM10_we_a [0:0] $end
   $var wire  9 w BRAM11_addr_a [8:0] $end
   $var wire  9 { BRAM11_addr_b [8:0] $end
   $var wire 64 x BRAM11_din_a [63:0] $end
   $var wire 64 | BRAM11_dout_b [63:0] $end
   $var wire  1 u BRAM11_en_a $end
   $var wire  1 z BRAM11_en_b $end
   $var wire  1 v BRAM11_we_a [0:0] $end
   $var wire  9 "! BRAM12_addr_a [8:0] $end
   $var wire  9 &! BRAM12_addr_b [8:0] $end
   $var wire 64 #! BRAM12_din_a [63:0] $end
   $var wire 64 '! BRAM12_dout_b [63:0] $end
   $var wire  1 ~ BRAM12_en_a $end
   $var wire  1 %! BRAM12_en_b $end
   $var wire  1 !! BRAM12_we_a [0:0] $end
   $var wire  9 b BRAM_base [8:0] $end
   $var wire  4 a BRAM_number [3:0] $end
   $var wire  4 d BRAM_rw_counter_bits [3:0] $end
   $var wire  1 c BRAM_size $end
   $var wire 32 2! COMPLETE [31:0] $end
   $var wire  2 ` Clk_Counter [1:0] $end
   $var wire  9 i Compressed_FIFO_count [8:0] $end
   $var wire 64 g Compressed_FIFO_data [63:0] $end
   $var wire  1 k Compressed_FIFO_dequeue $end
   $var wire  1 j Compressed_FIFO_ena $end
   $var wire  1 f Compressed_FIFO_r_master $end
   $var wire 32 8! DELAY [31:0] $end
   $var wire 64 ,! Decompressed_FIFO_data [63:0] $end
   $var wire  1 *! Decompressed_FIFO_dequeue $end
   $var wire  1 .! Decompressed_FIFO_empty $end
   $var wire  1 )! Decompressed_FIFO_ena $end
   $var wire  1 +! Decompressed_FIFO_r_master $end
   $var wire 32 0! IDLE [31:0] $end
   $var wire 32 ;! LAST_WRITE [31:0] $end
   $var wire 32 3! PIXEL_REPEAT [31:0] $end
   $var wire 32 4! PIXEL_UNREPEAT [31:0] $end
   $var wire  1 e PPU_start $end
   $var wire 32 7! READ [31:0] $end
   $var wire 32 :! REPEAT_DELAY [31:0] $end
   $var wire 32 5! SAME_PIXEL [31:0] $end
   $var wire 32 1! START [31:0] $end
   $var wire 32 9! UNREPEAT_DELAY [31:0] $end
   $var wire 32 6! WAIT_DATA [31:0] $end
   $var wire  1 ^ clk $end
   $var wire  1 Z compressed_FIFO_r_req $end
   $var wire 64 F compressed_FIFO_reg_64 [63:0] $end
   $var wire  1 H compressed_FIFO_reg_64_w_ena $end
   $var wire  3 I compressed_FIFO_reg_counter [2:0] $end
   $var wire  1 J compressed_FIFO_reg_counter_inc_ena $end
   $var wire  1 4 compressed_FIFO_reg_counter_reset $end
   $var wire 64 % compressed_fifo_r_data [63:0] $end
   $var wire  1 9 compressed_fifo_r_ena $end
   $var wire  1 /! compressed_fifo_r_end $end
   $var wire  1 : compressed_fifo_r_state $end
   $var wire  1 ' compressed_fifo_r_state_next $end
   $var wire  4 E decompress_state [3:0] $end
   $var wire  4 3 decompress_state_next [3:0] $end
   $var wire 64 K decompressed_FIFO_reg_64 [63:0] $end
   $var wire  3 M decompressed_FIFO_reg_counter [2:0] $end
   $var wire  1 N decompressed_FIFO_reg_counter_inc_ena $end
   $var wire  1 5 decompressed_FIFO_reg_counter_reset $end
   $var wire  8 O decompressed_FIFO_reg_wstrb [7:0] $end
   $var wire  2 > decompressed_fifo_r_state [1:0] $end
   $var wire  2 ( decompressed_fifo_r_state_next [1:0] $end
   $var wire 64 < decompressed_fifo_w_data [63:0] $end
   $var wire  1 ; decompressed_fifo_w_ena $end
   $var wire  1 $ decompressed_fifo_w_end $end
   $var wire  1 0 fifo_empty_128 $end
   $var wire  1 , fifo_empty_256 $end
   $var wire  8 A fifo_front_128 [7:0] $end
   $var wire  1 - fifo_front_128_inc_ena $end
   $var wire  9 ? fifo_front_256 [8:0] $end
   $var wire  1 ) fifo_front_256_inc_ena $end
   $var wire  1 / fifo_full_128 $end
   $var wire  1 + fifo_full_256 $end
   $var wire  8 B fifo_rear_128 [7:0] $end
   $var wire  1 . fifo_rear_128_inc_ena $end
   $var wire  9 @ fifo_rear_256 [8:0] $end
   $var wire  1 * fifo_rear_256_inc_ena $end
   $var wire  8 X pixel_reg [7:0] $end
   $var wire  1 Y pixel_reg_w_ena $end
   $var wire  8 P r_8 [7:0] $end
   $var wire  8 R r_8_reg [7:0] $end
   $var wire  1 S r_8_reg_w_ena $end
   $var wire  1 Q r_8_valid $end
   $var wire  1 [ r_end_req $end
   $var wire  4 C r_state [3:0] $end
   $var wire  4 1 r_state_next [3:0] $end
   $var wire  7 T repeat_counter [6:0] $end
   $var wire  1 6 repeat_counter_dec_ena $end
   $var wire  1 U repeat_counter_w_ena $end
   $var wire  1 _ resetn $end
   $var wire  1 # tdm_match $end
   $var wire  7 V unrepeat_counter [6:0] $end
   $var wire  1 7 unrepeat_counter_dec_ena $end
   $var wire  1 W unrepeat_counter_w_ena $end
   $var wire  8 \ w_8 [7:0] $end
   $var wire  1 8 w_8_ready $end
   $var wire  1 ] w_8_valid $end
   $var wire  1 [ w_end_req $end
   $var wire  4 D w_state [3:0] $end
   $var wire  4 2 w_state_next [3:0] $end
  $upscope $end
 $upscope $end
$enddefinitions $end


#0
1#
0$
b0000000000000000000000000000000000000000000000000000000000000000 %
0'
b00 (
0)
0*
0+
1,
0-
0.
1/
10
b0000 1
b0000 2
b0000 3
04
05
06
07
08
09
0:
0;
b0000000000000000000000000000000000000000000000000000000000000000 <
b00 >
b000000000 ?
b000000000 @
b00000000 A
b00000000 B
b0000 C
b0000 D
b0000 E
b0000000000000000000000000000000000000000000000000000000000000000 F
0H
b000 I
0J
b0000000000000000000000000000000000000000000000000000000000000000 K
b000 M
0N
b00000000 O
b00000000 P
0Q
b00000000 R
0S
b0000000 T
0U
b0000000 V
0W
b00000000 X
0Y
0Z
0[
b00000000 \
0]
0^
0_
b00 `
b1100 a
b000000000 b
1c
b0011 d
0e
0f
b0000000000000000000000000000000010101010100010101111111110001010 g
b000000101 i
1j
0k
0l
0m
b000000000 n
b0000000000000000000000000000000000000000000000000000000000000000 o
0q
b000000000 r
b0000000000000000000000000000000000000000000000000000000000000000 s
0u
0v
b000000000 w
b0000000000000000000000000000000000000000000000000000000000000000 x
0z
b000000000 {
b0000000000000000000000000000000000000000000000000000000000000000 |
0~
0!!
b000000000 "!
b0000000000000000000000000000000000000000000000000000000000000000 #!
0%!
b000000000 &!
b0000000000000000000000000000000000000000000000000000000000000001 '!
0)!
0*!
1+!
b0000000000000000000000000000000000000000000000000000000000000000 ,!
1.!
0/!
b00000000000000000000000000000000 0!
b00000000000000000000000000000001 1!
b00000000000000000000000000000010 2!
b00000000000000000000000000000011 3!
b00000000000000000000000000000100 4!
b00000000000000000000000000000101 5!
b00000000000000000000000000000110 6!
b00000000000000000000000000000111 7!
b00000000000000000000000000001000 8!
b00000000000000000000000000001001 9!
b00000000000000000000000000001010 :!
b00000000000000000000000000001011 ;!
#1
1^
b01 `
1f
#2
0^
#3
0#
1^
b10 `
0f
0+!
#4
0^
#5
1^
b11 `
#6
0^
#7
1#
1^
b00 `
1f
1+!
#8
0^
#9
1^
b01 `
#10
0^
#11
0#
1^
1_
b10 `
0f
0+!
#12
0^
#13
1^
b11 `
#14
0^
#15
1#
1^
b00 `
1f
1+!
#16
0^
#17
1^
b01 `
#18
0^
#19
0#
1^
b10 `
0f
0+!
#20
0^
#21
b0001 1
b0001 2
b0001 3
14
15
1^
b11 `
1e
#22
0^
#23
1#
1'
b0110 1
04
05
19
b0001 C
b0001 D
b0001 E
1Z
1^
b00 `
1f
1k
1+!
1/!
#24
0^
#25
b0000000000000000000000000000000010101010100010101111111110001010 %
0'
b0111 1
09
1:
b0110 C
1H
1^
b01 `
0k
0/!
#26
0^
#27
0#
b0000000000000000000000000000000000000000000000000000000000000000 %
b0011 3
0:
b0111 C
b0000000000000000000000000000000010101010100010101111111110001010 F
0H
1J
b10001010 P
1Q
1U
1^
b10 `
0f
0+!
#28
0^
#29
b0101 3
16
18
b0011 E
b001 I
1N
b00000001 O
b11111111 P
1S
b0001010 T
0U
1Y
b11111111 \
1]
1^
b11 `
#30
0^
#31
1#
b0101 E
b010 I
0J
b0000000000000000000000000000000000000000000000000000000011111111 K
b001 M
b00000010 O
b00000000 P
0Q
b11111111 R
0S
b0001001 T
b11111111 X
0Y
0Z
1^
b00 `
1f
1+!
#32
0^
#33
b0000000000000000000000000000000000000000000000001111111111111111 K
b010 M
b00000100 O
b0001000 T
1^
b01 `
#34
0^
#35
0#
b0000000000000000000000000000000000000000111111111111111111111111 K
b011 M
b00001000 O
b0000111 T
1^
b10 `
0f
0+!
#36
0^
#37
b0000000000000000000000000000000011111111111111111111111111111111 K
b100 M
b00010000 O
b0000110 T
1^
b11 `
#38
0^
#39
1#
b0000000000000000000000001111111111111111111111111111111111111111 K
b101 M
b00100000 O
b0000101 T
1^
b00 `
1f
1+!
#40
0^
#41
b0000000000000000111111111111111111111111111111111111111111111111 K
b110 M
b01000000 O
b0000100 T
1^
b01 `
#42
0^
#43
0#
b1000 2
06
08
1;
b1111111111111111111111111111111111111111111111111111111111111111 <
b0000000011111111111111111111111111111111111111111111111111111111 K
b111 M
b10000000 O
b0000011 T
1^
b10 `
0f
0+!
#44
0^
#45
b1000 D
b1111111111111111111111111111111111111111111111111111111111111111 K
b000 M
0N
b00000000 O
1^
b11 `
#46
0^
#47
1#
1$
1*
b0001 2
15
16
18
1^
b00 `
1f
1~
1!!
b1111111111111111111111111111111111111111111111111111111111111111 #!
1+!
#48
0^
#49
0$
0*
0,
05
0;
b0000000000000000000000000000000000000000000000000000000000000000 <
b000000001 @
b0001 D
1N
b00000001 O
b0000010 T
1^
b01 `
0~
0!!
b0000000000000000000000000000000000000000000000000000000000000000 #!
0.!
#50
0^
#51
0#
b0001 3
b001 M
b00000010 O
b0000001 T
1^
b10 `
0f
0+!
#52
0^
#53
b0011 3
06
08
b0001 E
1J
b010 M
0N
b00000000 O
b10001010 P
1Q
b0000000 T
1U
1Z
b00000000 \
0]
1^
b11 `
#54
0^
#55
1#
b0101 3
16
18
b0011 E
b011 I
1N
b00000100 O
b10101010 P
1S
b0001010 T
0U
1Y
b10101010 \
1]
1^
b00 `
1f
1+!
#56
0^
#57
b0101 E
b100 I
0J
b1111111111111111111111111111111111111111101010101111111111111111 K
b011 M
b00001000 O
b00000000 P
0Q
b10101010 R
0S
b0001001 T
b10101010 X
0Y
0Z
1^
b01 `
#58
0^
#59
0#
b1111111111111111111111111111111110101010101010101111111111111111 K
b100 M
b00010000 O
b0001000 T
1^
b10 `
0f
0+!
#60
0^
#61
b1111111111111111111111111010101010101010101010101111111111111111 K
b101 M
b00100000 O
b0000111 T
1^
b11 `
#62
0^
#63
1#
b1111111111111111101010101010101010101010101010101111111111111111 K
b110 M
b01000000 O
b0000110 T
1^
b00 `
1f
1+!
#64
0^
#65
1$
1*
1;
b1010101010101010101010101010101010101010101010101111111111111111 <
b1111111110101010101010101010101010101010101010101111111111111111 K
b111 M
b10000000 O
b0000101 T
1^
b01 `
1~
1!!
b000000001 "!
b1010101010101010101010101010101010101010101010101111111111111111 #!
#66
0^
#67
0#
0$
0*
0;
b0000000000000000000000000000000000000000000000000000000000000000 <
b000000010 @
b1010101010101010101010101010101010101010101010101111111111111111 K
b000 M
b00000001 O
b0000100 T
1^
b10 `
0f
0~
0!!
b000000000 "!
b0000000000000000000000000000000000000000000000000000000000000000 #!
0+!
#68
0^
#69
b1010101010101010101010101010101010101010101010101111111110101010 K
b001 M
b00000010 O
b0000011 T
1^
b11 `
#70
0^
#71
1#
b1010101010101010101010101010101010101010101010101010101010101010 K
b010 M
b00000100 O
b0000010 T
1^
b00 `
1f
1+!
#72
0^
#73
b0001 3
b011 M
b00001000 O
b0000001 T
1^
b01 `
#74
0^
#75
0#
b0010 3
06
08
b0001 E
1J
b100 M
0N
b00000000 O
1Q
b0000000 T
1Z
b00000000 \
0]
1^
b10 `
0f
0+!
#76
0^
#77
b0010 1
b1011 2
b0010 E
b101 I
0J
0Q
0Z
1[
1^
b11 `
#78
0^
#79
1#
1$
1*
b0010 2
1;
b0000000000000000000000000000000010101010101010101010101010101010 <
b0010 C
b1011 D
1^
b00 `
1f
0j
1~
1!!
b000000010 "!
b0000000000000000000000000000000010101010101010101010101010101010 #!
1+!
#80
0^
#81
0$
0*
0;
b0000000000000000000000000000000000000000000000000000000000000000 <
b000000011 @
b0010 D
1^
b01 `
0~
0!!
b000000000 "!
b0000000000000000000000000000000000000000000000000000000000000000 #!
#82
0^
#83
0#
1,
b000000000 @
b0000000000000000000000000000000000000000000000000000000000000000 F
b000 I
b0000000000000000000000000000000000000000000000000000000000000000 K
b000 M
b00000000 R
b00000000 X
1^
b10 `
0f
0+!
1.!
#84
0^
#85
1^
b11 `
#86
0^
#87
1#
1^
b00 `
1f
1+!
#88
0^
#89
1^
b01 `
#90
0^
#91
0#
1^
b10 `
0f
0+!
#92
0^
#93
1^
b11 `
#94
0^
#95
1#
1^
b00 `
1f
1+!
#96
0^
#97
1^
b01 `
#98
0^
#99
0#
1^
b10 `
0f
0+!
#100
0^
#101
1^
b11 `
#102
0^
#103
1#
1^
b00 `
1f
1+!
#104
0^
#105
1^
b01 `
#106
0^
#107
0#
1^
b10 `
0f
0+!
#108
0^
#109
1^
b11 `
#110
0^
#111
1#
1^
b00 `
1f
1+!
#112
0^
#113
1^
b01 `
#114
0^
#115
0#
1^
b10 `
0f
0+!
#116
0^
#117
1^
b11 `
#118
0^
#119
1#
1^
b00 `
1f
1+!
#120
0^
#121
1^
b01 `
#122
0^
#123
0#
1^
b10 `
0f
0+!
#124
0^
#125
1^
b11 `
#126
0^
#127
1#
1^
b00 `
1f
1+!
#128
0^
#129
1^
b01 `
#130
0^
#131
0#
1^
b10 `
0f
0+!
#132
0^
#133
1^
b11 `
#134
0^
#135
1#
1^
b00 `
1f
1+!
#136
0^
#137
1^
b01 `
#138
0^
#139
0#
1^
b10 `
0f
0+!
#140
0^
#141
1^
b11 `
#142
0^
#143
1#
1^
b00 `
1f
1+!
#144
0^
#145
1^
b01 `
#146
0^
#147
0#
1^
b10 `
0f
0+!
#148
0^
#149
1^
b11 `
#150
0^
#151
1#
1^
b00 `
1f
1+!
#152
0^
#153
1^
b01 `
#154
0^
#155
0#
1^
b10 `
0f
0+!
#156
0^
#157
1^
b11 `
#158
0^
#159
1#
1^
b00 `
1f
1+!
#160
0^
#161
1^
b01 `
#162
0^
#163
0#
1^
b10 `
0f
0+!
#164
0^
#165
1^
b11 `
#166
0^
#167
1#
1^
b00 `
1f
1+!
#168
0^
#169
1^
b01 `
#170
0^
#171
0#
1^
b10 `
0f
0+!
#172
0^
#173
1^
b11 `
#174
0^
#175
1#
1^
b00 `
1f
1+!
#176
0^
#177
1^
b01 `
#178
0^
#179
0#
1^
b10 `
0f
0+!
#180
0^
#181
1^
b11 `
#182
0^
#183
1#
1^
b00 `
1f
1+!
#184
0^
#185
1^
b01 `
#186
0^
#187
0#
1^
b10 `
0f
0+!
#188
0^
#189
1^
b11 `
#190
0^
#191
1#
1^
b00 `
1f
1+!
#192
0^
#193
1^
b01 `
#194
0^
#195
0#
1^
b10 `
0f
0+!
#196
0^
#197
1^
b11 `
#198
0^
#199
1#
1^
b00 `
1f
1+!
#200
0^
#201
1^
b01 `
#202
0^
#203
0#
1^
b10 `
0f
0+!
#204
0^
#205
1^
b11 `
#206
0^
#207
1#
1^
b00 `
1f
1+!
#208
0^
#209
1^
b01 `
#210
0^
#211
0#
1^
b10 `
0f
0+!
#212
0^
#213
1^
b11 `
#214
0^
#215
1#
1^
b00 `
1f
1+!
#216
0^
#217
1^
b01 `
#218
0^
#219
0#
1^
b10 `
0f
0+!
#220
0^
#221
1^
b11 `
#222
0^
#223
1#
1^
b00 `
1f
1+!
#224
0^
#225
1^
b01 `
#226
0^
#227
0#
1^
b10 `
0f
0+!
#228
0^
#229
1^
b11 `
#230
0^
#231
1#
1^
b00 `
1f
1+!
#232
0^
#233
1^
b01 `
#234
0^
#235
0#
1^
b10 `
0f
0+!
#236
0^
#237
1^
b11 `
#238
0^
#239
1#
1^
b00 `
1f
1+!
#240
0^
#241
1^
b01 `
#242
0^
#243
0#
1^
b10 `
0f
0+!
#244
0^
#245
1^
b11 `
#246
0^
#247
1#
1^
b00 `
1f
1+!
#248
0^
#249
1^
b01 `
#250
0^
#251
0#
1^
b10 `
0f
0+!
#252
0^
#253
1^
b11 `
#254
0^
#255
1#
1^
b00 `
1f
1+!
#256
0^
#257
1^
b01 `
#258
0^
#259
0#
1^
b10 `
0f
0+!
#260
0^
#261
1^
b11 `
#262
0^
#263
1#
1^
b00 `
1f
1+!
#264
0^
#265
1^
b01 `
#266
0^
#267
0#
1^
b10 `
0f
0+!
#268
0^
#269
1^
b11 `
#270
0^
#271
1#
1^
b00 `
1f
1+!
#272
0^
#273
1^
b01 `
#274
0^
#275
0#
1^
b10 `
0f
0+!
#276
0^
#277
1^
b11 `
#278
0^
#279
1#
1^
b00 `
1f
1+!
#280
0^
#281
1^
b01 `
#282
0^
#283
0#
1^
b10 `
0f
0+!
#284
0^
#285
1^
b11 `
#286
0^
#287
1#
1^
b00 `
1f
1+!
#288
0^
#289
1^
b01 `
#290
0^
#291
0#
1^
b10 `
0f
0+!
#292
0^
#293
1^
b11 `
#294
0^
#295
1#
1^
b00 `
1f
1+!
#296
0^
#297
1^
b01 `
#298
0^
#299
0#
1^
b10 `
0f
0+!
#300
0^
#301
1^
b11 `
#302
0^
#303
1#
1^
b00 `
1f
1+!
#304
0^
#305
1^
b01 `
#306
0^
#307
0#
1^
b10 `
0f
0+!
#308
0^
#309
1^
b11 `
#310
0^
#311
1#
1^
b00 `
1f
1+!
#312
0^
#313
1^
b01 `
#314
0^
#315
0#
1^
b10 `
0f
0+!
#316
0^
#317
1^
b11 `
#318
0^
#319
1#
1^
b00 `
1f
1+!
#320
0^
#321
1^
b01 `
#322
0^
#323
0#
1^
b10 `
0f
0+!
#324
0^
#325
1^
b11 `
#326
0^
#327
1#
1^
b00 `
1f
1+!
#328
0^
#329
1^
b01 `
#330
0^
#331
0#
1^
b10 `
0f
0+!
#332
0^
#333
1^
b11 `
#334
0^
#335
1#
1^
b00 `
1f
1+!
#336
0^
#337
1^
b01 `
#338
0^
#339
0#
1^
b10 `
0f
0+!
#340
0^
#341
1^
b11 `
#342
0^
#343
1#
1^
b00 `
1f
1+!
#344
0^
#345
1^
b01 `
#346
0^
#347
0#
1^
b10 `
0f
0+!
#348
0^
#349
1^
b11 `
#350
0^
#351
1#
1^
b00 `
1f
1+!
#352
0^
#353
1^
b01 `
#354
0^
#355
0#
1^
b10 `
0f
0+!
#356
0^
#357
1^
b11 `
#358
0^
#359
1#
1^
b00 `
1f
1+!
#360
0^
#361
1^
b01 `
#362
0^
#363
0#
1^
b10 `
0f
0+!
#364
0^
#365
1^
b11 `
#366
0^
#367
1#
1^
b00 `
1f
1+!
#368
0^
#369
1^
b01 `
#370
0^
#371
0#
1^
b10 `
0f
0+!
#372
0^
#373
1^
b11 `
#374
0^
#375
1#
1^
b00 `
1f
1+!
#376
0^
#377
1^
b01 `
#378
0^
#379
0#
1^
b10 `
0f
0+!
#380
0^
#381
1^
b11 `
#382
0^
#383
1#
1^
b00 `
1f
1+!
#384
0^
#385
1^
b01 `
#386
0^
#387
0#
1^
b10 `
0f
0+!
#388
0^
#389
1^
b11 `
#390
0^
#391
1#
1^
b00 `
1f
1+!
#392
0^
#393
1^
b01 `
#394
0^
#395
0#
1^
b10 `
0f
0+!
#396
0^
#397
1^
b11 `
#398
0^
#399
1#
1^
b00 `
1f
1+!
#400
0^
#401
1^
b01 `
#402
0^
#403
0#
1^
b10 `
0f
0+!
#404
0^
#405
1^
b11 `
#406
0^
#407
1#
1^
b00 `
1f
1+!
#408
0^
#409
1^
b01 `
#410
0^
#411
0#
1^
b10 `
0f
0+!
#412
0^
#413
1^
b11 `
#414
0^
#415
1#
1^
b00 `
1f
1+!
#416
0^
#417
1^
b01 `
#418
0^
#419
0#
1^
b10 `
0f
0+!
#420
0^
#421
1^
b11 `
#422
0^
#423
1#
1^
b00 `
1f
1+!
#424
0^
#425
1^
b01 `
#426
0^
#427
0#
1^
b10 `
0f
0+!
#428
0^
#429
1^
b11 `
#430
0^
#431
1#
1^
b00 `
1f
1+!
#432
0^
#433
1^
b01 `
#434
0^
#435
0#
1^
b10 `
0f
0+!
#436
0^
#437
1^
b11 `
#438
0^
#439
1#
1^
b00 `
1f
1+!
#440
0^
#441
1^
b01 `
#442
0^
#443
0#
1^
b10 `
0f
0+!
#444
0^
#445
1^
b11 `
#446
0^
#447
1#
1^
b00 `
1f
1+!
#448
0^
#449
1^
b01 `
#450
0^
#451
0#
1^
b10 `
0f
0+!
#452
0^
#453
1^
b11 `
#454
0^
#455
1#
1^
b00 `
1f
1+!
#456
0^
#457
1^
b01 `
#458
0^
#459
0#
1^
b10 `
0f
0+!
#460
0^
#461
1^
b11 `
#462
0^
#463
1#
1^
b00 `
1f
1+!
#464
0^
#465
1^
b01 `
#466
0^
#467
0#
1^
b10 `
0f
0+!
#468
0^
#469
1^
b11 `
#470
0^
#471
1#
1^
b00 `
1f
1+!
#472
0^
#473
1^
b01 `
#474
0^
#475
0#
1^
b10 `
0f
0+!
#476
0^
#477
1^
b11 `
#478
0^
#479
1#
1^
b00 `
1f
1+!
#480
0^
#481
1^
b01 `
#482
0^
#483
0#
1^
b10 `
0f
0+!
#484
0^
#485
1^
b11 `
#486
0^
#487
1#
1^
b00 `
1f
1+!
#488
0^
#489
1^
b01 `
#490
0^
#491
0#
1^
b10 `
0f
0+!
#492
0^
#493
1^
b11 `
#494
0^
#495
1#
1^
b00 `
1f
1+!
#496
0^
#497
1^
b01 `
#498
0^
#499
0#
1^
b10 `
0f
0+!
#500
0^
#501
1^
b11 `
#502
0^
#503
1#
1^
b00 `
1f
1+!
#504
0^
#505
1^
b01 `
#506
0^
#507
0#
1^
b10 `
0f
0+!
#508
0^
#509
1^
b11 `
#510
0^
#511
1#
1^
b00 `
1f
1+!
#512
0^
#513
1^
b01 `
#514
0^
#515
0#
1^
b10 `
0f
0+!
#516
0^
#517
1^
b11 `
#518
0^
#519
1#
1^
b00 `
1f
1+!
#520
0^
#521
1^
b01 `
#522
0^
#523
0#
1^
b10 `
0f
0+!
#524
0^
#525
1^
b11 `
#526
0^
#527
1#
1^
b00 `
1f
1+!
#528
0^
#529
1^
b01 `
#530
0^
#531
0#
1^
b10 `
0f
0+!
#532
0^
#533
1^
b11 `
#534
0^
#535
1#
1^
b00 `
1f
1+!
#536
0^
#537
1^
b01 `
#538
0^
#539
0#
1^
b10 `
0f
0+!
#540
0^
#541
1^
b11 `
#542
0^
#543
1#
1^
b00 `
1f
1+!
#544
0^
#545
1^
b01 `
#546
0^
#547
0#
1^
b10 `
0f
0+!
#548
0^
#549
1^
b11 `
#550
0^
#551
1#
1^
b00 `
1f
1+!
#552
0^
#553
1^
b01 `
#554
0^
#555
0#
1^
b10 `
0f
0+!
#556
0^
#557
1^
b11 `
#558
0^
#559
1#
1^
b00 `
1f
1+!
#560
0^
#561
1^
b01 `
#562
0^
#563
0#
1^
b10 `
0f
0+!
#564
0^
#565
1^
b11 `
#566
0^
#567
1#
1^
b00 `
1f
1+!
#568
0^
#569
1^
b01 `
#570
0^
#571
0#
1^
b10 `
0f
0+!
#572
0^
#573
1^
b11 `
#574
0^
#575
1#
1^
b00 `
1f
1+!
#576
0^
#577
1^
b01 `
#578
0^
#579
0#
1^
b10 `
0f
0+!
#580
0^
#581
1^
b11 `
#582
0^
#583
1#
1^
b00 `
1f
1+!
#584
0^
#585
1^
b01 `
#586
0^
#587
0#
1^
b10 `
0f
0+!
#588
0^
#589
1^
b11 `
#590
0^
#591
1#
1^
b00 `
1f
1+!
#592
0^
#593
1^
b01 `
#594
0^
#595
0#
1^
b10 `
0f
0+!
#596
0^
#597
1^
b11 `
#598
0^
#599
1#
1^
b00 `
1f
1+!
#600
0^
#601
1^
b01 `
#602
0^
#603
0#
1^
b10 `
0f
0+!
#604
0^
#605
1^
b11 `
#606
0^
#607
1#
1^
b00 `
1f
1+!
#608
0^
#609
1^
b01 `
#610
0^
#611
0#
1^
b10 `
0f
0+!
#612
0^
#613
1^
b11 `
#614
0^
#615
1#
1^
b00 `
1f
1+!
#616
0^
#617
1^
b01 `
#618
0^
#619
0#
1^
b10 `
0f
0+!
#620
0^
#621
1^
b11 `
#622
0^
#623
1#
1^
b00 `
1f
1+!
#624
0^
#625
1^
b01 `
#626
0^
#627
0#
1^
b10 `
0f
0+!
#628
0^
#629
1^
b11 `
#630
0^
#631
1#
1^
b00 `
1f
1+!
#632
0^
#633
1^
b01 `
#634
0^
#635
0#
1^
b10 `
0f
0+!
#636
0^
#637
1^
b11 `
#638
0^
#639
1#
1^
b00 `
1f
1+!
#640
0^
#641
1^
b01 `
#642
0^
#643
0#
1^
b10 `
0f
0+!
#644
0^
#645
1^
b11 `
#646
0^
#647
1#
1^
b00 `
1f
1+!
#648
0^
#649
1^
b01 `
#650
0^
#651
0#
1^
b10 `
0f
0+!
#652
0^
#653
1^
b11 `
#654
0^
#655
1#
1^
b00 `
1f
1+!
#656
0^
#657
1^
b01 `
#658
0^
#659
0#
1^
b10 `
0f
0+!
#660
0^
#661
1^
b11 `
#662
0^
#663
1#
1^
b00 `
1f
1+!
#664
0^
#665
1^
b01 `
#666
0^
#667
0#
1^
b10 `
0f
0+!
#668
0^
#669
1^
b11 `
#670
0^
#671
1#
1^
b00 `
1f
1+!
#672
0^
#673
1^
b01 `
#674
0^
#675
0#
1^
b10 `
0f
0+!
#676
0^
#677
1^
b11 `
#678
0^
#679
1#
1^
b00 `
1f
1+!
#680
0^
#681
1^
b01 `
#682
0^
#683
0#
1^
b10 `
0f
0+!
#684
0^
#685
1^
b11 `
#686
0^
#687
1#
1^
b00 `
1f
1+!
#688
0^
#689
1^
b01 `
#690
0^
#691
0#
1^
b10 `
0f
0+!
#692
0^
#693
1^
b11 `
#694
0^
#695
1#
1^
b00 `
1f
1+!
#696
0^
#697
1^
b01 `
#698
0^
#699
0#
1^
b10 `
0f
0+!
#700
0^
#701
1^
b11 `
#702
0^
#703
1#
1^
b00 `
1f
1+!
#704
0^
#705
1^
b01 `
#706
0^
#707
0#
1^
b10 `
0f
0+!
#708
0^
#709
1^
b11 `
#710
0^
#711
1#
1^
b00 `
1f
1+!
#712
0^
#713
1^
b01 `
#714
0^
#715
0#
1^
b10 `
0f
0+!
#716
0^
#717
1^
b11 `
#718
0^
#719
1#
1^
b00 `
1f
1+!
#720
0^
#721
1^
b01 `
#722
0^
#723
0#
1^
b10 `
0f
0+!
#724
0^
#725
1^
b11 `
#726
0^
#727
1#
1^
b00 `
1f
1+!
#728
0^
#729
1^
b01 `
#730
0^
#731
0#
1^
b10 `
0f
0+!
#732
0^
#733
1^
b11 `
#734
0^
#735
1#
1^
b00 `
1f
1+!
#736
0^
#737
1^
b01 `
#738
0^
#739
0#
1^
b10 `
0f
0+!
#740
0^
#741
1^
b11 `
#742
0^
#743
1#
1^
b00 `
1f
1+!
#744
0^
#745
1^
b01 `
#746
0^
#747
0#
1^
b10 `
0f
0+!
#748
0^
#749
1^
b11 `
#750
0^
#751
1#
1^
b00 `
1f
1+!
#752
0^
#753
1^
b01 `
#754
0^
#755
0#
1^
b10 `
0f
0+!
#756
0^
